…
Looks like the id's are unique and two genders is expected, but there's a few too many states and way too many credentials.

~~~ r
df %>%
  group_by(State) %>%
  dplyr::summarise(state.counts = n()) %>%
  arrange(state.counts)
~~~

    ## # A tibble: 57 x 2
    ##     State state.counts
    ##    <fctr>        <int>
    ## 1      AA            1
    ## 2      AE            2
    ## 3      GU            2
    ## 4      ZZ            2
    ## 5      VI            3
    ## 6      WY           38
    ## 7      AK           39
    ## 8      VT           65
    ## 9      ND           66
    ## 10     MT           77
    ## # ... with 47 more rows
…
