…
Looks like the id's are unique and two genders is expected, but there's a few too many states and way too many credentials.

~~~ r
df %>%
  group_by(State) %>%
  dplyr::summarise(state.counts = n()) %>%
  arrange(state.counts)
~~~

    ## # A tibble: 53 × 2
    ##     State state.counts
    ##    <fctr>        <int>
    ## 1      AE            1
    ## 2      MT            1
    ## 3      SD            1
    ## 4      AK            2
    ## 5      DE            3
    ## 6      RI            3
    ## 7      VT            3
    ## 8      DC            4
    ## 9      ND            4
    ## 10     WY            4
    ## # ... with 43 more rows
…
